﻿скан	PS/2	Клавиша		КОД
0	0			
1	1	F9		
2	2			
3	3	F5		
4	4	F3		
5	5	F1		
6	6	F2		
7	7	F12		

8	8			
9	9	F10		
10	A	F8		
11	B	F6		
12	C	F4		
13	D	TAB		
14	E	~`		
15	F		
	
16	10			
17	11	L_ALT		
18	12	L_SHIFT		
19	13			
20	14	L_CTRL		
21	15	Q		
22	16	1		
23	17
			
24	18			
25	19			
26	1A	Z		
27	1B	S		
28	1C	A		
29	1D	W		
30	1E	2		
31	1F	*L_Win		
32	20	
		
33	21	C		
34	22	X		
35	23	D		
36	24	E		
37	25	4		
38	26	3		
39	27	*R_Win		
40	28			
41	29	SPACE		
42	2A	V		
43	2B	F		
44	2C	T		
45	2D	R		
46	2E	5		
47	2F	*MENU		
48	30			
49	31	N		
50	32	B		
51	33	H		
52	34	G		
53	35	Y		
54	36	6		
55	37	*POWER		
56	38			
57	39			
58	3A	M		
59	3B	J		
60	3C	U		
61	3D	7		
62	3E	8		
63	3F	*SLEEP		
64	40			
65	41	, <		
66	42	K		
67	43	I		
68	44	O		
69	45	0		
70	46	9		
71	47			
72	48			
73	49	. >		
74	4A	/ ?		
75	4B	L		
76	4C	; :		
77	4D	P		
78	4E	- _		
79	4F			
80	50			
81	51			
82	52	' "		
83	53			
84	54	[ {		
85	55	= +		
86	56			
87	57			
88	58	CS LOCK		
89	59	R_SHIFT		
90	5A	ENTER		
91	5B	] }		
92	5C			
93	5D	\ |		
94	5E	*WAKE		
95	5F			
96	60			
97	61			
98	62			
99	63			
100	64			
101	65			
102	66	BS		
103	67			
104	68			
105	69	N1		
106	6A			
107	6B	N4		
108	6C	N7		
109	6D			
110	6E			
111	6F			
112	70	N0		
113	71	N.		
114	72	N2		
115	73	N5		
116	74	N6		
117	75	N8		
118	76	ESC		
119	77	NM LOCK	
120	78	F11		
121	79	N+		
122	7A	N3		
123	7B	N-		
124	7C	N*		
125	7D	N9		
126	7E	SC LOCK		
127	7F			
